{
  "main":{
     "maintitle":"Lorem Ipsum is simply dummy text of the printing and text of the printing typesetting industry.",
      "miandescription":"Lorem Ipsum is simply dummy text of the printing and typesetting industry. Lorem Ipsum has been the industry's standard dummy text ever since the 1500s, when an unknown printer took a galley of type and scrambled it to make a type specimen book. It has survived not only five centuries, but also the leap into electronic typesetting, remaining essentially unchanged. It was popularised in the 1960s with the release of Letraset sheets containing Lorem Ipsum passages, and more recently with desktop publishing software .",
      "sectitle":"Lorem Ipsum is simply dummy text of the printing",
      "secdescription":"Lorem Ipsum is simply dummy text of the printing and typesetting industry. Lorem Ipsum has been the industry's standard dummy text ever since the 1500s, when an unknown printer took a galley of type and scrambled it to make a type specimen book. It has survived not only five centuries, but also the leap into electronic typesetting, remaining essentially unchanged. It was popularised in the 1960s with the release of Letraset sheets containing Lorem Ipsum passages, and more recently with desktop publishing software .",
      "thirdtitle":"Lorem Ipsum is simply dummy text of the printing",
      "thirddescription":"It is a long established fact that a reader will be discracted by the readble.",
      "image":"Group 5.jpg",
      "date":"December 26,2018",
      "blogby":"Matthew Johns",
      "quotedtext":" Lorem Ipsum is simply dummy text of the printing and typesetting industry. Lorem Ipsum has been the industry's standard dummy text ever since the 1500s." 
  }
}
