{
  "exp": {
    "expservice": [
      {
        "title": "Marketing",
        "subservices": [
          {
            "title": "hello"
          },
          {
            "title": "hello1"
          },
          {
            "title": "hello2"
          },
          {
            "title": "hello3"
          }
        ]
      },
      {
        "title":"Sales",
         "subservices": [
          {
            "title": "hello4"
          },
          {
            "title": "Sales"
          },
          {
            "title": "Risk"
          },
          {
            "title": "Accounting"
          }
        ]
      },
      {
        "title":"Risk",
         "subservices": [
          {
            "title": "Marketing"
          },
          {
            "title": "Sales"
          },
          {
            "title": "Risk"
          },
          {
            "title": "Accounting"
          }
        ]
      },
      {
        "title":"Accounting",
         "subservices": [
          {
            "title": "Marketing"
          },
          {
            "title": "Sales"
          },
          {
            "title": "Risk"
          },
          {
            "title": "Accounting"
          }
        ]
      },
      {
        "title": "Innovation",
        "subservices": [
          {
            "title": "hello"
          },
          {
            "title": "hello1"
          },
          {
            "title": "hello2"
          },
          {
            "title": "hello3"
          }
        ]
      },
      {
        "title": "Corporate Developement",
        "subservices": [
          {
            "title": "hello"
          },
          {
            "title": "hello1"
          },
          {
            "title": "hello2"
          },
          {
            "title": "hello3"
          }
        ]
      },
      {
        "title": "Analytics (Data)",
        "subservices": [
          {
            "title": "hello"
          },
          {
            "title": "hello1"
          },
          {
            "title": "hello2"
          },
          {
            "title": "hello3"
          }
        ]
      },
      {
        "title": "Supply Chain",
        "subservices": [
          {
            "title": "hello"
          },
          {
            "title": "hello1"
          },
          {
            "title": "hello2"
          },
          {
            "title": "hello3"
          }
        ]
      },
      {
        "title": "Finanace",
        "subservices": [
          {
            "title": "hello"
          },
          {
            "title": "hello1"
          },
          {
            "title": "hello2"
          },
          {
            "title": "hello3"
          }
        ]
      },
      {
        "title": "Strategy",
        "subservices": [
          {
            "title": "hello"
          },
          {
            "title": "hello1"
          },
          {
            "title": "hello2"
          },
          {
            "title": "hello3"
          }
        ]
      },
      {
        "title": "Program Management",
        "subservices": [
          {
            "title": "hello"
          },
          {
            "title": "hello1"
          },
          {
            "title": "hello2"
          },
          {
            "title": "hello3"
          }
        ]
      },
      {
        "title": "Procurement",
        "subservices": [
          {
            "title": "hello"
          },
          {
            "title": "hello1"
          },
          {
            "title": "hello2"
          },
          {
            "title": "hello3"
          }
        ]
      },
      {
        "title": "Tax",
        "subservices": [
          {
            "title": "hello"
          },
          {
            "title": "hello1"
          },
          {
            "title": "hello2"
          },
          {
            "title": "hello3"
          }
        ]
      },
      {
        "title": "Real Estate",
        "subservices": [
          {
            "title": "hello"
          },
          {
            "title": "hello1"
          },
          {
            "title": "hello2"
          },
          {
            "title": "hello3"
          }
        ]
      },
      {
        "title": "Technology",
        "subservices": [
          {
            "title": "hello"
          },
          {
            "title": "hello1"
          },
          {
            "title": "hello2"
          },
          {
            "title": "hello3"
          }
        ]
      },
      {
        "title": "Human Resources",
        "subservices": [
          {
            "title": "hello"
          },
          {
            "title": "hello1"
          },
          {
            "title": "hello2"
          },
          {
            "title": "hello3"
          }
        ]
      },
      {
        "title": "Sustainability",
        "subservices": [
          {
            "title": "hello"
          },
          {
            "title": "hello1"
          },
          {
            "title": "hello2"
          },
          {
            "title": "hello3"
          }
        ]
      }
    ]
  }
}